^E:\_EGYETEM\6.FELEV\GYAK2\DEMOS\FONTS AND CHARACTER SETS EXAMPLES\WXWIDGETS\WXWIDGETSFONTSEXAMPLE\WXWIDGETSFONTSEXAMPLE\MAIN.CPP
E:\_EGYETEM\6.FELEV\GYAK2\DEMOS\FONTS AND CHARACTER SETS EXAMPLES\WXWIDGETS\WXWIDGETSFONTSEXAMPLE\WXWIDGETSFONTSEXAMPLE\DEBUG\VC142.PDB
E:\_EGYETEM\6.FELEV\GYAK2\DEMOS\FONTS AND CHARACTER SETS EXAMPLES\WXWIDGETS\WXWIDGETSFONTSEXAMPLE\WXWIDGETSFONTSEXAMPLE\DEBUG\VC142.IDB
E:\_EGYETEM\6.FELEV\GYAK2\DEMOS\FONTS AND CHARACTER SETS EXAMPLES\WXWIDGETS\WXWIDGETSFONTSEXAMPLE\WXWIDGETSFONTSEXAMPLE\DEBUG\MAIN.OBJ
