\relax 
\providecommand\babel@aux[2]{}
\@nameuse{bbl@beforestart}
\catcode \string ``=12
\@writefile{thm}{\select@language{magyar} \contentsline {desc}{{}{1}{}}{1}{}\protected@file@percent }
\@writefile{thm}{\select@language{magyar} \contentsline {desc}{{}{2}{}}{1}{}\protected@file@percent }
\@writefile{thm}{\select@language{magyar} \contentsline {desc}{{}{3}{}}{1}{}\protected@file@percent }
\@writefile{thm}{\select@language{magyar} \contentsline {desc}{{}{4}{}}{1}{}\protected@file@percent }
\@writefile{thm}{\select@language{magyar} \contentsline {desc}{{}{5}{}}{1}{}\protected@file@percent }
\@writefile{thm}{\select@language{magyar} \contentsline {desc}{{}{6}{}}{1}{}\protected@file@percent }
\@writefile{toc}{\select@language{magyar} \contentsline {section}{\numberline {1}Primitívek rajzolása}{2}{}\protected@file@percent }
\@writefile{lof}{\select@language{magyar} \contentsline {figure}{\numberline {1.}{\ignorespaces \relax }}{2}{}\protected@file@percent }
\@writefile{toc}{\select@language{magyar} \contentsline {subsection}{\numberline {1.1}{\bf  {Szakaszok}}}{4}{}\protected@file@percent }
\@writefile{toc}{\select@language{magyar} \contentsline {subsection}{\numberline {1.2}{\bf  {Elliptikus ívek}}}{5}{}\protected@file@percent }
\@writefile{toc}{\select@language{magyar} \contentsline {subsection}{\numberline {1.3}{\bf  {Téglalapok}}}{7}{}\protected@file@percent }
\@writefile{toc}{\select@language{magyar} \contentsline {subsection}{\numberline {1.4}{\bf  {Sokszögek}}}{8}{}\protected@file@percent }
\@writefile{toc}{\select@language{magyar} \contentsline {section}{\numberline {2}Színezés}{10}{}\protected@file@percent }
\@writefile{lof}{\select@language{magyar} \contentsline {figure}{\numberline {2.}{\ignorespaces \relax }}{10}{}\protected@file@percent }
\@writefile{toc}{\select@language{magyar} \contentsline {subsection}{\numberline {2.1}Színkészítés:}{10}{}\protected@file@percent }
\@writefile{toc}{\select@language{magyar} \contentsline {subsection}{\numberline {2.2}Átlátszóság kezelése:}{11}{}\protected@file@percent }
\@writefile{toc}{\select@language{magyar} \contentsline {subsection}{\numberline {2.3}Hogyan történik a színezés?}{11}{}\protected@file@percent }
\@writefile{toc}{\select@language{magyar} \contentsline {section}{\numberline {3}Vonal és kitöltési stílusok}{13}{}\protected@file@percent }
\@writefile{lof}{\select@language{magyar} \contentsline {figure}{\numberline {3.}{\ignorespaces \relax }}{13}{}\protected@file@percent }
\@writefile{toc}{\select@language{magyar} \contentsline {section}{\numberline {4}Koordinátarendszer transzformációk}{16}{}\protected@file@percent }
\@writefile{lof}{\select@language{magyar} \contentsline {figure}{\numberline {4.}{\ignorespaces \relax }}{16}{}\protected@file@percent }
\@writefile{toc}{\select@language{magyar} \contentsline {section}{\numberline {5}Betűtípusok}{17}{}\protected@file@percent }
\@writefile{lof}{\select@language{magyar} \contentsline {figure}{\numberline {5.}{\ignorespaces \relax }}{17}{}\protected@file@percent }
\@writefile{toc}{\select@language{magyar} \contentsline {section}{\numberline {6}Képek}{18}{}\protected@file@percent }
\gdef \@abspage@last{19}
