^E:\_EGYETEM\6.FELEV\GYAK2\DEMOS\IMAGES EXAMPLES\WXWIDGETS\WXWIDGETSIMAGE\WXWIDGETSIMAGE\MAIN.CPP
E:\_EGYETEM\6.FELEV\GYAK2\DEMOS\IMAGES EXAMPLES\WXWIDGETS\WXWIDGETSIMAGE\WXWIDGETSIMAGE\DEBUG\VC142.PDB
E:\_EGYETEM\6.FELEV\GYAK2\DEMOS\IMAGES EXAMPLES\WXWIDGETS\WXWIDGETSIMAGE\WXWIDGETSIMAGE\DEBUG\VC142.IDB
E:\_EGYETEM\6.FELEV\GYAK2\DEMOS\IMAGES EXAMPLES\WXWIDGETS\WXWIDGETSIMAGE\WXWIDGETSIMAGE\DEBUG\MAIN.OBJ
