^E:\_EGYETEM\6.FELEV\GYAK2\DEMOS\LINE AND FILL EXAMPLES\WXWIDGETS\EXAMPLE\EXAMPLE\MAIN.CPP
C:\WINDOWS\GLOBALIZATION\SORTING\SORTDEFAULT.NLS
C:\PROGRAM FILES (X86)\MICROSOFT VISUAL STUDIO\2019\COMMUNITY\VC\TOOLS\MSVC\14.28.29910\BIN\HOSTX86\X86\1033\CLUI.DLL
C:\WINDOWS\SYSTEM32\TZRES.DLL
C:\USERS\AMD\DESKTOP\WXWIDGETS\INCLUDE\WX\WX.H
C:\USERS\AMD\DESKTOP\WXWIDGETS\INCLUDE\WX\DEFS.H
C:\USERS\AMD\DESKTOP\WXWIDGETS\INCLUDE\WX\PLATFORM.H
C:\USERS\AMD\DESKTOP\WXWIDGETS\INCLUDE\WX\COMPILER.H
C:\USERS\AMD\DESKTOP\WXWIDGETS\LIB\VC_DLL\MSWUD\WX\SETUP.H
C:\USERS\AMD\DESKTOP\WXWIDGETS\INCLUDE\WX\MSW\LIBRARIES.H
C:\USERS\AMD\DESKTOP\WXWIDGETS\INCLUDE\WX\CHKCONF.H
C:\USERS\AMD\DESKTOP\WXWIDGETS\INCLUDE\WX\MSW\CHKCONF.H
C:\USERS\AMD\DESKTOP\WXWIDGETS\INCLUDE\WX\VERSION.H
C:\USERS\AMD\DESKTOP\WXWIDGETS\INCLUDE\WX\CPP.H
C:\USERS\AMD\DESKTOP\WXWIDGETS\INCLUDE\WX\DLIMPEXP.H
C:\PROGRAM FILES (X86)\WINDOWS KITS\10\INCLUDE\10.0.19041.0\UCRT\STDDEF.H
C:\PROGRAM FILES (X86)\WINDOWS KITS\10\INCLUDE\10.0.19041.0\UCRT\CORECRT.H
C:\PROGRAM FILES (X86)\MICROSOFT VISUAL STUDIO\2019\COMMUNITY\VC\TOOLS\MSVC\14.28.29910\INCLUDE\VCRUNTIME.H
C:\PROGRAM FILES (X86)\MICROSOFT VISUAL STUDIO\2019\COMMUNITY\VC\TOOLS\MSVC\14.28.29910\INCLUDE\SAL.H
C:\PROGRAM FILES (X86)\MICROSOFT VISUAL STUDIO\2019\COMMUNITY\VC\TOOLS\MSVC\14.28.29910\INCLUDE\CONCURRENCYSAL.H
C:\PROGRAM FILES (X86)\MICROSOFT VISUAL STUDIO\2019\COMMUNITY\VC\TOOLS\MSVC\14.28.29910\INCLUDE\VADEFS.H
C:\USERS\AMD\DESKTOP\WXWIDGETS\INCLUDE\WX\TYPES.H
C:\USERS\AMD\DESKTOP\WXWIDGETS\INCLUDE\WX\DEBUG.H
C:\PROGRAM FILES (X86)\WINDOWS KITS\10\INCLUDE\10.0.19041.0\UCRT\ASSERT.H
C:\PROGRAM FILES (X86)\MICROSOFT VISUAL STUDIO\2019\COMMUNITY\VC\TOOLS\MSVC\14.28.29910\INCLUDE\LIMITS.H
C:\USERS\AMD\DESKTOP\WXWIDGETS\INCLUDE\WX\CHARTYPE.H
C:\PROGRAM FILES (X86)\WINDOWS KITS\10\INCLUDE\10.0.19041.0\UCRT\TCHAR.H
C:\PROGRAM FILES (X86)\WINDOWS KITS\10\INCLUDE\10.0.19041.0\UCRT\WCHAR.H
C:\PROGRAM FILES (X86)\WINDOWS KITS\10\INCLUDE\10.0.19041.0\UCRT\CORECRT_MEMCPY_S.H
C:\PROGRAM FILES (X86)\WINDOWS KITS\10\INCLUDE\10.0.19041.0\UCRT\ERRNO.H
C:\PROGRAM FILES (X86)\MICROSOFT VISUAL STUDIO\2019\COMMUNITY\VC\TOOLS\MSVC\14.28.29910\INCLUDE\VCRUNTIME_STRING.H
C:\PROGRAM FILES (X86)\WINDOWS KITS\10\INCLUDE\10.0.19041.0\UCRT\CORECRT_WCONIO.H
C:\PROGRAM FILES (X86)\WINDOWS KITS\10\INCLUDE\10.0.19041.0\UCRT\CORECRT_STDIO_CONFIG.H
C:\PROGRAM FILES (X86)\WINDOWS KITS\10\INCLUDE\10.0.19041.0\UCRT\CORECRT_WCTYPE.H
C:\PROGRAM FILES (X86)\WINDOWS KITS\10\INCLUDE\10.0.19041.0\UCRT\CORECRT_WDIRECT.H
C:\PROGRAM FILES (X86)\WINDOWS KITS\10\INCLUDE\10.0.19041.0\UCRT\CORECRT_WIO.H
C:\PROGRAM FILES (X86)\WINDOWS KITS\10\INCLUDE\10.0.19041.0\UCRT\CORECRT_SHARE.H
C:\PROGRAM FILES (X86)\WINDOWS KITS\10\INCLUDE\10.0.19041.0\UCRT\CORECRT_WPROCESS.H
C:\PROGRAM FILES (X86)\WINDOWS KITS\10\INCLUDE\10.0.19041.0\UCRT\CORECRT_WSTDIO.H
C:\PROGRAM FILES (X86)\WINDOWS KITS\10\INCLUDE\10.0.19041.0\UCRT\CORECRT_WSTDLIB.H
C:\PROGRAM FILES (X86)\WINDOWS KITS\10\INCLUDE\10.0.19041.0\UCRT\CORECRT_WSTRING.H
C:\PROGRAM FILES (X86)\WINDOWS KITS\10\INCLUDE\10.0.19041.0\UCRT\CORECRT_WTIME.H
C:\PROGRAM FILES (X86)\WINDOWS KITS\10\INCLUDE\10.0.19041.0\UCRT\SYS\STAT.H
C:\PROGRAM FILES (X86)\WINDOWS KITS\10\INCLUDE\10.0.19041.0\UCRT\SYS\TYPES.H
C:\USERS\AMD\DESKTOP\WXWIDGETS\INCLUDE\WX\FEATURES.H
C:\USERS\AMD\DESKTOP\WXWIDGETS\INCLUDE\WX\OBJECT.H
C:\USERS\AMD\DESKTOP\WXWIDGETS\INCLUDE\WX\MEMORY.H
C:\USERS\AMD\DESKTOP\WXWIDGETS\INCLUDE\WX\STRING.H
C:\PROGRAM FILES (X86)\WINDOWS KITS\10\INCLUDE\10.0.19041.0\UCRT\STRING.H
C:\PROGRAM FILES (X86)\WINDOWS KITS\10\INCLUDE\10.0.19041.0\UCRT\CORECRT_MEMORY.H
C:\PROGRAM FILES (X86)\WINDOWS KITS\10\INCLUDE\10.0.19041.0\UCRT\STDIO.H
C:\PROGRAM FILES (X86)\MICROSOFT VISUAL STUDIO\2019\COMMUNITY\VC\TOOLS\MSVC\14.28.29910\INCLUDE\STDARG.H
C:\PROGRAM FILES (X86)\WINDOWS KITS\10\INCLUDE\10.0.19041.0\UCRT\STDLIB.H
C:\PROGRAM FILES (X86)\WINDOWS KITS\10\INCLUDE\10.0.19041.0\UCRT\CORECRT_MALLOC.H
C:\PROGRAM FILES (X86)\WINDOWS KITS\10\INCLUDE\10.0.19041.0\UCRT\CORECRT_SEARCH.H
C:\USERS\AMD\DESKTOP\WXWIDGETS\INCLUDE\WX\WXCRTBASE.H
C:\PROGRAM FILES (X86)\WINDOWS KITS\10\INCLUDE\10.0.19041.0\UCRT\CTYPE.H
C:\PROGRAM FILES (X86)\WINDOWS KITS\10\INCLUDE\10.0.19041.0\UCRT\WCTYPE.H
C:\PROGRAM FILES (X86)\WINDOWS KITS\10\INCLUDE\10.0.19041.0\UCRT\TIME.H
C:\PROGRAM FILES (X86)\WINDOWS KITS\10\INCLUDE\10.0.19041.0\UCRT\IO.H
C:\PROGRAM FILES (X86)\WINDOWS KITS\10\INCLUDE\10.0.19041.0\UCRT\CORECRT_IO.H
C:\USERS\AMD\DESKTOP\WXWIDGETS\INCLUDE\WX\STRVARARG.H
C:\USERS\AMD\DESKTOP\WXWIDGETS\INCLUDE\WX\STRCONV.H
C:\USERS\AMD\DESKTOP\WXWIDGETS\INCLUDE\WX\BUFFER.H
C:\USERS\AMD\DESKTOP\WXWIDGETS\INCLUDE\WX\FONTENC.H
C:\USERS\AMD\DESKTOP\WXWIDGETS\INCLUDE\WX\UNICHAR.H
C:\USERS\AMD\DESKTOP\WXWIDGETS\INCLUDE\WX\STRINGIMPL.H
C:\USERS\AMD\DESKTOP\WXWIDGETS\INCLUDE\WX\BEFORESTD.H
C:\PROGRAM FILES (X86)\MICROSOFT VISUAL STUDIO\2019\COMMUNITY\VC\TOOLS\MSVC\14.28.29910\INCLUDE\STRING
C:\PROGRAM FILES (X86)\MICROSOFT VISUAL STUDIO\2019\COMMUNITY\VC\TOOLS\MSVC\14.28.29910\INCLUDE\YVALS_CORE.H
C:\PROGRAM FILES (X86)\MICROSOFT VISUAL STUDIO\2019\COMMUNITY\VC\TOOLS\MSVC\14.28.29910\INCLUDE\XKEYCHECK.H
C:\PROGRAM FILES (X86)\MICROSOFT VISUAL STUDIO\2019\COMMUNITY\VC\TOOLS\MSVC\14.28.29910\INCLUDE\XSTRING
C:\PROGRAM FILES (X86)\MICROSOFT VISUAL STUDIO\2019\COMMUNITY\VC\TOOLS\MSVC\14.28.29910\INCLUDE\IOSFWD
C:\PROGRAM FILES (X86)\MICROSOFT VISUAL STUDIO\2019\COMMUNITY\VC\TOOLS\MSVC\14.28.29910\INCLUDE\YVALS.H
C:\PROGRAM FILES (X86)\WINDOWS KITS\10\INCLUDE\10.0.19041.0\UCRT\CRTDBG.H
C:\PROGRAM FILES (X86)\MICROSOFT VISUAL STUDIO\2019\COMMUNITY\VC\TOOLS\MSVC\14.28.29910\INCLUDE\VCRUNTIME_NEW_DEBUG.H
C:\PROGRAM FILES (X86)\MICROSOFT VISUAL STUDIO\2019\COMMUNITY\VC\TOOLS\MSVC\14.28.29910\INCLUDE\VCRUNTIME_NEW.H
C:\PROGRAM FILES (X86)\MICROSOFT VISUAL STUDIO\2019\COMMUNITY\VC\TOOLS\MSVC\14.28.29910\INCLUDE\CRTDEFS.H
C:\PROGRAM FILES (X86)\MICROSOFT VISUAL STUDIO\2019\COMMUNITY\VC\TOOLS\MSVC\14.28.29910\INCLUDE\USE_ANSI.H
C:\PROGRAM FILES (X86)\MICROSOFT VISUAL STUDIO\2019\COMMUNITY\VC\TOOLS\MSVC\14.28.29910\INCLUDE\CSTDIO
C:\PROGRAM FILES (X86)\MICROSOFT VISUAL STUDIO\2019\COMMUNITY\VC\TOOLS\MSVC\14.28.29910\INCLUDE\CSTRING
C:\PROGRAM FILES (X86)\MICROSOFT VISUAL STUDIO\2019\COMMUNITY\VC\TOOLS\MSVC\14.28.29910\INCLUDE\CWCHAR
C:\PROGRAM FILES (X86)\MICROSOFT VISUAL STUDIO\2019\COMMUNITY\VC\TOOLS\MSVC\14.28.29910\INCLUDE\XSTDDEF
C:\PROGRAM FILES (X86)\MICROSOFT VISUAL STUDIO\2019\COMMUNITY\VC\TOOLS\MSVC\14.28.29910\INCLUDE\CSTDDEF
C:\PROGRAM FILES (X86)\MICROSOFT VISUAL STUDIO\2019\COMMUNITY\VC\TOOLS\MSVC\14.28.29910\INCLUDE\XTR1COMMON
C:\PROGRAM FILES (X86)\MICROSOFT VISUAL STUDIO\2019\COMMUNITY\VC\TOOLS\MSVC\14.28.29910\INCLUDE\CSTDLIB
C:\PROGRAM FILES (X86)\WINDOWS KITS\10\INCLUDE\10.0.19041.0\UCRT\MATH.H
C:\PROGRAM FILES (X86)\WINDOWS KITS\10\INCLUDE\10.0.19041.0\UCRT\CORECRT_MATH.H
C:\PROGRAM FILES (X86)\MICROSOFT VISUAL STUDIO\2019\COMMUNITY\VC\TOOLS\MSVC\14.28.29910\INCLUDE\INITIALIZER_LIST
C:\PROGRAM FILES (X86)\MICROSOFT VISUAL STUDIO\2019\COMMUNITY\VC\TOOLS\MSVC\14.28.29910\INCLUDE\XMEMORY
C:\PROGRAM FILES (X86)\MICROSOFT VISUAL STUDIO\2019\COMMUNITY\VC\TOOLS\MSVC\14.28.29910\INCLUDE\CSTDINT
C:\PROGRAM FILES (X86)\MICROSOFT VISUAL STUDIO\2019\COMMUNITY\VC\TOOLS\MSVC\14.28.29910\INCLUDE\STDINT.H
C:\PROGRAM FILES (X86)\MICROSOFT VISUAL STUDIO\2019\COMMUNITY\VC\TOOLS\MSVC\14.28.29910\INCLUDE\LIMITS
C:\PROGRAM FILES (X86)\MICROSOFT VISUAL STUDIO\2019\COMMUNITY\VC\TOOLS\MSVC\14.28.29910\INCLUDE\CFLOAT
C:\PROGRAM FILES (X86)\WINDOWS KITS\10\INCLUDE\10.0.19041.0\UCRT\FLOAT.H
C:\PROGRAM FILES (X86)\MICROSOFT VISUAL STUDIO\2019\COMMUNITY\VC\TOOLS\MSVC\14.28.29910\INCLUDE\CLIMITS
C:\PROGRAM FILES (X86)\MICROSOFT VISUAL STUDIO\2019\COMMUNITY\VC\TOOLS\MSVC\14.28.29910\INCLUDE\INTRIN0.H
C:\PROGRAM FILES (X86)\MICROSOFT VISUAL STUDIO\2019\COMMUNITY\VC\TOOLS\MSVC\14.28.29910\INCLUDE\ISA_AVAILABILITY.H
C:\PROGRAM FILES (X86)\MICROSOFT VISUAL STUDIO\2019\COMMUNITY\VC\TOOLS\MSVC\14.28.29910\INCLUDE\NEW
C:\PROGRAM FILES (X86)\MICROSOFT VISUAL STUDIO\2019\COMMUNITY\VC\TOOLS\MSVC\14.28.29910\INCLUDE\EXCEPTION
C:\PROGRAM FILES (X86)\MICROSOFT VISUAL STUDIO\2019\COMMUNITY\VC\TOOLS\MSVC\14.28.29910\INCLUDE\TYPE_TRAITS
C:\PROGRAM FILES (X86)\WINDOWS KITS\10\INCLUDE\10.0.19041.0\UCRT\MALLOC.H
C:\PROGRAM FILES (X86)\MICROSOFT VISUAL STUDIO\2019\COMMUNITY\VC\TOOLS\MSVC\14.28.29910\INCLUDE\VCRUNTIME_EXCEPTION.H
C:\PROGRAM FILES (X86)\MICROSOFT VISUAL STUDIO\2019\COMMUNITY\VC\TOOLS\MSVC\14.28.29910\INCLUDE\EH.H
C:\PROGRAM FILES (X86)\WINDOWS KITS\10\INCLUDE\10.0.19041.0\UCRT\CORECRT_TERMINATE.H
C:\PROGRAM FILES (X86)\MICROSOFT VISUAL STUDIO\2019\COMMUNITY\VC\TOOLS\MSVC\14.28.29910\INCLUDE\XATOMIC.H
C:\PROGRAM FILES (X86)\MICROSOFT VISUAL STUDIO\2019\COMMUNITY\VC\TOOLS\MSVC\14.28.29910\INCLUDE\XUTILITY
C:\PROGRAM FILES (X86)\MICROSOFT VISUAL STUDIO\2019\COMMUNITY\VC\TOOLS\MSVC\14.28.29910\INCLUDE\UTILITY
C:\PROGRAM FILES (X86)\MICROSOFT VISUAL STUDIO\2019\COMMUNITY\VC\TOOLS\MSVC\14.28.29910\INCLUDE\CCTYPE
C:\USERS\AMD\DESKTOP\WXWIDGETS\INCLUDE\WX\AFTERSTD.H
C:\USERS\AMD\DESKTOP\WXWIDGETS\INCLUDE\WX\MSW\WINUNDEF.H
C:\PROGRAM FILES (X86)\MICROSOFT VISUAL STUDIO\2019\COMMUNITY\VC\TOOLS\MSVC\14.28.29910\INCLUDE\ALGORITHM
C:\USERS\AMD\DESKTOP\WXWIDGETS\INCLUDE\WX\STRINGOPS.H
C:\PROGRAM FILES (X86)\MICROSOFT VISUAL STUDIO\2019\COMMUNITY\VC\TOOLS\MSVC\14.28.29910\INCLUDE\FUNCTIONAL
C:\PROGRAM FILES (X86)\MICROSOFT VISUAL STUDIO\2019\COMMUNITY\VC\TOOLS\MSVC\14.28.29910\INCLUDE\TUPLE
C:\PROGRAM FILES (X86)\MICROSOFT VISUAL STUDIO\2019\COMMUNITY\VC\TOOLS\MSVC\14.28.29910\INCLUDE\TYPEINFO
C:\PROGRAM FILES (X86)\MICROSOFT VISUAL STUDIO\2019\COMMUNITY\VC\TOOLS\MSVC\14.28.29910\INCLUDE\VCRUNTIME_TYPEINFO.H
C:\USERS\AMD\DESKTOP\WXWIDGETS\INCLUDE\WX\IOSFWRAP.H
C:\USERS\AMD\DESKTOP\WXWIDGETS\INCLUDE\WX\MSGOUT.H
C:\USERS\AMD\DESKTOP\WXWIDGETS\INCLUDE\WX\XTI.H
C:\USERS\AMD\DESKTOP\WXWIDGETS\INCLUDE\WX\RTTI.H
C:\USERS\AMD\DESKTOP\WXWIDGETS\INCLUDE\WX\FLAGS.H
C:\USERS\AMD\DESKTOP\WXWIDGETS\INCLUDE\WX\XTI2.H
C:\USERS\AMD\DESKTOP\WXWIDGETS\INCLUDE\WX\DYNARRAY.H
C:\USERS\AMD\DESKTOP\WXWIDGETS\INCLUDE\WX\VECTOR.H
C:\USERS\AMD\DESKTOP\WXWIDGETS\INCLUDE\WX\SCOPEGUARD.H
C:\USERS\AMD\DESKTOP\WXWIDGETS\INCLUDE\WX\EXCEPT.H
C:\USERS\AMD\DESKTOP\WXWIDGETS\INCLUDE\WX\META\MOVABLE.H
C:\USERS\AMD\DESKTOP\WXWIDGETS\INCLUDE\WX\META\POD.H
C:\USERS\AMD\DESKTOP\WXWIDGETS\INCLUDE\WX\META\IF.H
C:\PROGRAM FILES (X86)\MICROSOFT VISUAL STUDIO\2019\COMMUNITY\VC\TOOLS\MSVC\14.28.29910\INCLUDE\ITERATOR
C:\USERS\AMD\DESKTOP\WXWIDGETS\INCLUDE\WX\LIST.H
C:\USERS\AMD\DESKTOP\WXWIDGETS\INCLUDE\WX\HASH.H
C:\USERS\AMD\DESKTOP\WXWIDGETS\INCLUDE\WX\HASHMAP.H
C:\USERS\AMD\DESKTOP\WXWIDGETS\INCLUDE\WX\WXCRT.H
C:\USERS\AMD\DESKTOP\WXWIDGETS\INCLUDE\WX\ARRSTR.H
C:\PROGRAM FILES (X86)\MICROSOFT VISUAL STUDIO\2019\COMMUNITY\VC\TOOLS\MSVC\14.28.29910\INCLUDE\VECTOR
C:\USERS\AMD\DESKTOP\WXWIDGETS\INCLUDE\WX\INTL.H
C:\USERS\AMD\DESKTOP\WXWIDGETS\INCLUDE\WX\TRANSLATION.H
C:\USERS\AMD\DESKTOP\WXWIDGETS\INCLUDE\WX\LANGUAGE.H
C:\USERS\AMD\DESKTOP\WXWIDGETS\INCLUDE\WX\SCOPEDPTR.H
C:\USERS\AMD\DESKTOP\WXWIDGETS\INCLUDE\WX\CHECKEDDELETE.H
C:\USERS\AMD\DESKTOP\WXWIDGETS\INCLUDE\WX\LOG.H
C:\USERS\AMD\DESKTOP\WXWIDGETS\INCLUDE\WX\TIME.H
C:\USERS\AMD\DESKTOP\WXWIDGETS\INCLUDE\WX\LONGLONG.H
C:\USERS\AMD\DESKTOP\WXWIDGETS\INCLUDE\WX\THREAD.H
C:\USERS\AMD\DESKTOP\WXWIDGETS\INCLUDE\WX\GENERIC\LOGG.H
C:\USERS\AMD\DESKTOP\WXWIDGETS\INCLUDE\WX\EVENT.H
C:\USERS\AMD\DESKTOP\WXWIDGETS\INCLUDE\WX\CLNTDATA.H
C:\USERS\AMD\DESKTOP\WXWIDGETS\INCLUDE\WX\MATH.H
C:\PROGRAM FILES (X86)\MICROSOFT VISUAL STUDIO\2019\COMMUNITY\VC\TOOLS\MSVC\14.28.29910\INCLUDE\CMATH
C:\USERS\AMD\DESKTOP\WXWIDGETS\INCLUDE\WX\GDICMN.H
C:\USERS\AMD\DESKTOP\WXWIDGETS\INCLUDE\WX\CURSOR.H
C:\USERS\AMD\DESKTOP\WXWIDGETS\INCLUDE\WX\GDIOBJ.H
C:\USERS\AMD\DESKTOP\WXWIDGETS\INCLUDE\WX\MSW\GDIIMAGE.H
C:\USERS\AMD\DESKTOP\WXWIDGETS\INCLUDE\WX\MSW\CURSOR.H
C:\USERS\AMD\DESKTOP\WXWIDGETS\INCLUDE\WX\UTILS.H
C:\USERS\AMD\DESKTOP\WXWIDGETS\INCLUDE\WX\FILEFN.H
C:\PROGRAM FILES (X86)\WINDOWS KITS\10\INCLUDE\10.0.19041.0\UCRT\DIRECT.H
C:\PROGRAM FILES (X86)\WINDOWS KITS\10\INCLUDE\10.0.19041.0\UCRT\DOS.H
C:\PROGRAM FILES (X86)\WINDOWS KITS\10\INCLUDE\10.0.19041.0\UCRT\FCNTL.H
C:\USERS\AMD\DESKTOP\WXWIDGETS\INCLUDE\WX\VERSIONINFO.H
C:\USERS\AMD\DESKTOP\WXWIDGETS\INCLUDE\WX\META\IMPLICITCONVERSION.H
C:\USERS\AMD\DESKTOP\WXWIDGETS\INCLUDE\WX\MOUSESTATE.H
C:\USERS\AMD\DESKTOP\WXWIDGETS\INCLUDE\WX\KBDSTATE.H
C:\USERS\AMD\DESKTOP\WXWIDGETS\INCLUDE\WX\PLATINFO.H
C:\USERS\AMD\DESKTOP\WXWIDGETS\INCLUDE\WX\TRACKER.H
C:\USERS\AMD\DESKTOP\WXWIDGETS\INCLUDE\WX\TYPEINFO.H
C:\USERS\AMD\DESKTOP\WXWIDGETS\INCLUDE\WX\ANY.H
C:\USERS\AMD\DESKTOP\WXWIDGETS\INCLUDE\WX\DATETIME.H
C:\USERS\AMD\DESKTOP\WXWIDGETS\INCLUDE\WX\ANYSTR.H
C:\USERS\AMD\DESKTOP\WXWIDGETS\INCLUDE\WX\VARIANT.H
C:\USERS\AMD\DESKTOP\WXWIDGETS\INCLUDE\WX\META\CONVERTIBLE.H
C:\USERS\AMD\DESKTOP\WXWIDGETS\INCLUDE\WX\META\REMOVEREF.H
C:\USERS\AMD\DESKTOP\WXWIDGETS\INCLUDE\WX\APP.H
C:\USERS\AMD\DESKTOP\WXWIDGETS\INCLUDE\WX\EVENTFILTER.H
C:\USERS\AMD\DESKTOP\WXWIDGETS\INCLUDE\WX\BUILD.H
C:\USERS\AMD\DESKTOP\WXWIDGETS\INCLUDE\WX\CMDARGS.H
C:\USERS\AMD\DESKTOP\WXWIDGETS\INCLUDE\WX\INIT.H
C:\USERS\AMD\DESKTOP\WXWIDGETS\INCLUDE\WX\MSW\INIT.H
C:\USERS\AMD\DESKTOP\WXWIDGETS\INCLUDE\WX\MSW\WRAPWIN.H
C:\USERS\AMD\DESKTOP\WXWIDGETS\INCLUDE\WX\MSW\WINVER.H
C:\PROGRAM FILES (X86)\WINDOWS KITS\10\INCLUDE\10.0.19041.0\UM\WINDOWS.H
C:\PROGRAM FILES (X86)\WINDOWS KITS\10\INCLUDE\10.0.19041.0\SHARED\WINAPIFAMILY.H
C:\PROGRAM FILES (X86)\WINDOWS KITS\10\INCLUDE\10.0.19041.0\SHARED\WINPACKAGEFAMILY.H
C:\PROGRAM FILES (X86)\WINDOWS KITS\10\INCLUDE\10.0.19041.0\SHARED\SDKDDKVER.H
C:\PROGRAM FILES (X86)\MICROSOFT VISUAL STUDIO\2019\COMMUNITY\VC\TOOLS\MSVC\14.28.29910\INCLUDE\EXCPT.H
C:\PROGRAM FILES (X86)\WINDOWS KITS\10\INCLUDE\10.0.19041.0\SHARED\WINDEF.H
C:\PROGRAM FILES (X86)\WINDOWS KITS\10\INCLUDE\10.0.19041.0\SHARED\MINWINDEF.H
C:\PROGRAM FILES (X86)\WINDOWS KITS\10\INCLUDE\10.0.19041.0\SHARED\SPECSTRINGS.H
C:\PROGRAM FILES (X86)\WINDOWS KITS\10\INCLUDE\10.0.19041.0\SHARED\SPECSTRINGS_STRICT.H
C:\PROGRAM FILES (X86)\WINDOWS KITS\10\INCLUDE\10.0.19041.0\SHARED\SPECSTRINGS_UNDEF.H
C:\PROGRAM FILES (X86)\WINDOWS KITS\10\INCLUDE\10.0.19041.0\SHARED\DRIVERSPECS.H
C:\PROGRAM FILES (X86)\WINDOWS KITS\10\INCLUDE\10.0.19041.0\SHARED\SDV_DRIVERSPECS.H
C:\PROGRAM FILES (X86)\WINDOWS KITS\10\INCLUDE\10.0.19041.0\UM\WINNT.H
C:\PROGRAM FILES (X86)\WINDOWS KITS\10\INCLUDE\10.0.19041.0\SHARED\KERNELSPECS.H
C:\PROGRAM FILES (X86)\WINDOWS KITS\10\INCLUDE\10.0.19041.0\SHARED\BASETSD.H
C:\PROGRAM FILES (X86)\WINDOWS KITS\10\INCLUDE\10.0.19041.0\SHARED\GUIDDEF.H
C:\PROGRAM FILES (X86)\WINDOWS KITS\10\INCLUDE\10.0.19041.0\SHARED\PSHPACK4.H
C:\PROGRAM FILES (X86)\WINDOWS KITS\10\INCLUDE\10.0.19041.0\SHARED\POPPACK.H
C:\PROGRAM FILES (X86)\WINDOWS KITS\10\INCLUDE\10.0.19041.0\SHARED\PSHPACK2.H
C:\PROGRAM FILES (X86)\WINDOWS KITS\10\INCLUDE\10.0.19041.0\SHARED\PSHPACK8.H
C:\PROGRAM FILES (X86)\WINDOWS KITS\10\INCLUDE\10.0.19041.0\SHARED\PSHPACK1.H
C:\PROGRAM FILES (X86)\WINDOWS KITS\10\INCLUDE\10.0.19041.0\SHARED\APISET.H
C:\PROGRAM FILES (X86)\WINDOWS KITS\10\INCLUDE\10.0.19041.0\SHARED\KTMTYPES.H
C:\PROGRAM FILES (X86)\WINDOWS KITS\10\INCLUDE\10.0.19041.0\UM\WINBASE.H
C:\PROGRAM FILES (X86)\WINDOWS KITS\10\INCLUDE\10.0.19041.0\SHARED\APISETCCONV.H
C:\PROGRAM FILES (X86)\WINDOWS KITS\10\INCLUDE\10.0.19041.0\UM\MINWINBASE.H
C:\PROGRAM FILES (X86)\WINDOWS KITS\10\INCLUDE\10.0.19041.0\UM\APIQUERY2.H
C:\PROGRAM FILES (X86)\WINDOWS KITS\10\INCLUDE\10.0.19041.0\UM\PROCESSENV.H
C:\PROGRAM FILES (X86)\WINDOWS KITS\10\INCLUDE\10.0.19041.0\UM\FILEAPIFROMAPP.H
C:\PROGRAM FILES (X86)\WINDOWS KITS\10\INCLUDE\10.0.19041.0\UM\FILEAPI.H
C:\PROGRAM FILES (X86)\WINDOWS KITS\10\INCLUDE\10.0.19041.0\UM\DEBUGAPI.H
C:\PROGRAM FILES (X86)\WINDOWS KITS\10\INCLUDE\10.0.19041.0\UM\UTILAPISET.H
C:\PROGRAM FILES (X86)\WINDOWS KITS\10\INCLUDE\10.0.19041.0\UM\HANDLEAPI.H
C:\PROGRAM FILES (X86)\WINDOWS KITS\10\INCLUDE\10.0.19041.0\UM\ERRHANDLINGAPI.H
C:\PROGRAM FILES (X86)\WINDOWS KITS\10\INCLUDE\10.0.19041.0\UM\FIBERSAPI.H
C:\PROGRAM FILES (X86)\WINDOWS KITS\10\INCLUDE\10.0.19041.0\UM\NAMEDPIPEAPI.H
C:\PROGRAM FILES (X86)\WINDOWS KITS\10\INCLUDE\10.0.19041.0\UM\PROFILEAPI.H
C:\PROGRAM FILES (X86)\WINDOWS KITS\10\INCLUDE\10.0.19041.0\UM\HEAPAPI.H
C:\PROGRAM FILES (X86)\WINDOWS KITS\10\INCLUDE\10.0.19041.0\UM\IOAPISET.H
C:\PROGRAM FILES (X86)\WINDOWS KITS\10\INCLUDE\10.0.19041.0\UM\SYNCHAPI.H
C:\PROGRAM FILES (X86)\WINDOWS KITS\10\INCLUDE\10.0.19041.0\UM\INTERLOCKEDAPI.H
C:\PROGRAM FILES (X86)\WINDOWS KITS\10\INCLUDE\10.0.19041.0\UM\PROCESSTHREADSAPI.H
C:\PROGRAM FILES (X86)\WINDOWS KITS\10\INCLUDE\10.0.19041.0\UM\SYSINFOAPI.H
C:\PROGRAM FILES (X86)\WINDOWS KITS\10\INCLUDE\10.0.19041.0\UM\MEMORYAPI.H
C:\PROGRAM FILES (X86)\WINDOWS KITS\10\INCLUDE\10.0.19041.0\UM\ENCLAVEAPI.H
C:\PROGRAM FILES (X86)\WINDOWS KITS\10\INCLUDE\10.0.19041.0\UM\THREADPOOLLEGACYAPISET.H
C:\PROGRAM FILES (X86)\WINDOWS KITS\10\INCLUDE\10.0.19041.0\UM\THREADPOOLAPISET.H
C:\PROGRAM FILES (X86)\WINDOWS KITS\10\INCLUDE\10.0.19041.0\UM\JOBAPI.H
C:\PROGRAM FILES (X86)\WINDOWS KITS\10\INCLUDE\10.0.19041.0\UM\JOBAPI2.H
C:\PROGRAM FILES (X86)\WINDOWS KITS\10\INCLUDE\10.0.19041.0\UM\WOW64APISET.H
C:\PROGRAM FILES (X86)\WINDOWS KITS\10\INCLUDE\10.0.19041.0\UM\LIBLOADERAPI.H
C:\PROGRAM FILES (X86)\WINDOWS KITS\10\INCLUDE\10.0.19041.0\UM\SECURITYBASEAPI.H
C:\PROGRAM FILES (X86)\WINDOWS KITS\10\INCLUDE\10.0.19041.0\UM\NAMESPACEAPI.H
C:\PROGRAM FILES (X86)\WINDOWS KITS\10\INCLUDE\10.0.19041.0\UM\SYSTEMTOPOLOGYAPI.H
C:\PROGRAM FILES (X86)\WINDOWS KITS\10\INCLUDE\10.0.19041.0\UM\PROCESSTOPOLOGYAPI.H
C:\PROGRAM FILES (X86)\WINDOWS KITS\10\INCLUDE\10.0.19041.0\UM\SECURITYAPPCONTAINER.H
C:\PROGRAM FILES (X86)\WINDOWS KITS\10\INCLUDE\10.0.19041.0\UM\REALTIMEAPISET.H
C:\PROGRAM FILES (X86)\WINDOWS KITS\10\INCLUDE\10.0.19041.0\SHARED\WINERROR.H
C:\PROGRAM FILES (X86)\WINDOWS KITS\10\INCLUDE\10.0.19041.0\UM\TIMEZONEAPI.H
C:\PROGRAM FILES (X86)\WINDOWS KITS\10\INCLUDE\10.0.19041.0\UM\WINGDI.H
C:\PROGRAM FILES (X86)\WINDOWS KITS\10\INCLUDE\10.0.19041.0\UM\WINUSER.H
C:\PROGRAM FILES (X86)\WINDOWS KITS\10\INCLUDE\10.0.19041.0\SHARED\TVOUT.H
C:\PROGRAM FILES (X86)\WINDOWS KITS\10\INCLUDE\10.0.19041.0\UM\WINNLS.H
C:\PROGRAM FILES (X86)\WINDOWS KITS\10\INCLUDE\10.0.19041.0\UM\DATETIMEAPI.H
C:\PROGRAM FILES (X86)\WINDOWS KITS\10\INCLUDE\10.0.19041.0\UM\STRINGAPISET.H
C:\PROGRAM FILES (X86)\WINDOWS KITS\10\INCLUDE\10.0.19041.0\UM\WINCON.H
C:\PROGRAM FILES (X86)\WINDOWS KITS\10\INCLUDE\10.0.19041.0\UM\WINCONTYPES.H
C:\PROGRAM FILES (X86)\WINDOWS KITS\10\INCLUDE\10.0.19041.0\UM\CONSOLEAPI.H
C:\PROGRAM FILES (X86)\WINDOWS KITS\10\INCLUDE\10.0.19041.0\UM\CONSOLEAPI2.H
C:\PROGRAM FILES (X86)\WINDOWS KITS\10\INCLUDE\10.0.19041.0\UM\CONSOLEAPI3.H
C:\PROGRAM FILES (X86)\WINDOWS KITS\10\INCLUDE\10.0.19041.0\UM\WINVER.H
C:\PROGRAM FILES (X86)\WINDOWS KITS\10\INCLUDE\10.0.19041.0\UM\VERRSRC.H
C:\PROGRAM FILES (X86)\WINDOWS KITS\10\INCLUDE\10.0.19041.0\UM\WINREG.H
C:\PROGRAM FILES (X86)\WINDOWS KITS\10\INCLUDE\10.0.19041.0\UM\REASON.H
C:\PROGRAM FILES (X86)\WINDOWS KITS\10\INCLUDE\10.0.19041.0\UM\WINNETWK.H
C:\PROGRAM FILES (X86)\WINDOWS KITS\10\INCLUDE\10.0.19041.0\SHARED\WNNC.H
C:\PROGRAM FILES (X86)\WINDOWS KITS\10\INCLUDE\10.0.19041.0\SHARED\CDERR.H
C:\PROGRAM FILES (X86)\WINDOWS KITS\10\INCLUDE\10.0.19041.0\UM\DDE.H
C:\PROGRAM FILES (X86)\WINDOWS KITS\10\INCLUDE\10.0.19041.0\UM\DDEML.H
C:\PROGRAM FILES (X86)\WINDOWS KITS\10\INCLUDE\10.0.19041.0\UM\DLGS.H
C:\PROGRAM FILES (X86)\WINDOWS KITS\10\INCLUDE\10.0.19041.0\UM\LZEXPAND.H
C:\PROGRAM FILES (X86)\WINDOWS KITS\10\INCLUDE\10.0.19041.0\UM\MMSYSTEM.H
C:\PROGRAM FILES (X86)\WINDOWS KITS\10\INCLUDE\10.0.19041.0\UM\MMSYSCOM.H
C:\PROGRAM FILES (X86)\WINDOWS KITS\10\INCLUDE\10.0.19041.0\UM\MCIAPI.H
C:\PROGRAM FILES (X86)\WINDOWS KITS\10\INCLUDE\10.0.19041.0\UM\MMISCAPI.H
C:\PROGRAM FILES (X86)\WINDOWS KITS\10\INCLUDE\10.0.19041.0\UM\MMISCAPI2.H
C:\PROGRAM FILES (X86)\WINDOWS KITS\10\INCLUDE\10.0.19041.0\UM\PLAYSOUNDAPI.H
C:\PROGRAM FILES (X86)\WINDOWS KITS\10\INCLUDE\10.0.19041.0\UM\MMEAPI.H
C:\PROGRAM FILES (X86)\WINDOWS KITS\10\INCLUDE\10.0.19041.0\UM\TIMEAPI.H
C:\PROGRAM FILES (X86)\WINDOWS KITS\10\INCLUDE\10.0.19041.0\UM\JOYSTICKAPI.H
C:\PROGRAM FILES (X86)\WINDOWS KITS\10\INCLUDE\10.0.19041.0\UM\NB30.H
C:\PROGRAM FILES (X86)\WINDOWS KITS\10\INCLUDE\10.0.19041.0\SHARED\RPC.H
C:\PROGRAM FILES (X86)\WINDOWS KITS\10\INCLUDE\10.0.19041.0\SHARED\RPCDCE.H
C:\PROGRAM FILES (X86)\WINDOWS KITS\10\INCLUDE\10.0.19041.0\SHARED\RPCDCEP.H
C:\PROGRAM FILES (X86)\WINDOWS KITS\10\INCLUDE\10.0.19041.0\UM\RPCNSI.H
C:\PROGRAM FILES (X86)\WINDOWS KITS\10\INCLUDE\10.0.19041.0\SHARED\RPCNTERR.H
C:\PROGRAM FILES (X86)\WINDOWS KITS\10\INCLUDE\10.0.19041.0\SHARED\RPCASYNC.H
C:\PROGRAM FILES (X86)\WINDOWS KITS\10\INCLUDE\10.0.19041.0\UM\SHELLAPI.H
C:\PROGRAM FILES (X86)\WINDOWS KITS\10\INCLUDE\10.0.19041.0\UM\WINPERF.H
C:\PROGRAM FILES (X86)\WINDOWS KITS\10\INCLUDE\10.0.19041.0\UM\WINSOCK.H
C:\PROGRAM FILES (X86)\WINDOWS KITS\10\INCLUDE\10.0.19041.0\SHARED\INADDR.H
C:\PROGRAM FILES (X86)\WINDOWS KITS\10\INCLUDE\10.0.19041.0\UM\WINCRYPT.H
C:\PROGRAM FILES (X86)\WINDOWS KITS\10\INCLUDE\10.0.19041.0\SHARED\BCRYPT.H
C:\PROGRAM FILES (X86)\WINDOWS KITS\10\INCLUDE\10.0.19041.0\UM\NCRYPT.H
C:\PROGRAM FILES (X86)\WINDOWS KITS\10\INCLUDE\10.0.19041.0\UM\DPAPI.H
C:\PROGRAM FILES (X86)\WINDOWS KITS\10\INCLUDE\10.0.19041.0\UM\WINEFS.H
C:\PROGRAM FILES (X86)\WINDOWS KITS\10\INCLUDE\10.0.19041.0\UM\WINSCARD.H
C:\PROGRAM FILES (X86)\WINDOWS KITS\10\INCLUDE\10.0.19041.0\SHARED\WTYPES.H
C:\PROGRAM FILES (X86)\WINDOWS KITS\10\INCLUDE\10.0.19041.0\SHARED\RPCNDR.H
C:\PROGRAM FILES (X86)\WINDOWS KITS\10\INCLUDE\10.0.19041.0\UM\RPCNSIP.H
C:\PROGRAM FILES (X86)\WINDOWS KITS\10\INCLUDE\10.0.19041.0\SHARED\RPCSAL.H
C:\PROGRAM FILES (X86)\WINDOWS KITS\10\INCLUDE\10.0.19041.0\SHARED\WTYPESBASE.H
C:\PROGRAM FILES (X86)\WINDOWS KITS\10\INCLUDE\10.0.19041.0\UM\WINIOCTL.H
C:\PROGRAM FILES (X86)\WINDOWS KITS\10\INCLUDE\10.0.19041.0\SHARED\WINSMCRD.H
C:\PROGRAM FILES (X86)\WINDOWS KITS\10\INCLUDE\10.0.19041.0\UM\WINSPOOL.H
C:\PROGRAM FILES (X86)\WINDOWS KITS\10\INCLUDE\10.0.19041.0\UM\PRSHT.H
C:\PROGRAM FILES (X86)\WINDOWS KITS\10\INCLUDE\10.0.19041.0\UM\OLE2.H
C:\PROGRAM FILES (X86)\WINDOWS KITS\10\INCLUDE\10.0.19041.0\UM\OBJBASE.H
C:\PROGRAM FILES (X86)\WINDOWS KITS\10\INCLUDE\10.0.19041.0\UM\COMBASEAPI.H
C:\PROGRAM FILES (X86)\WINDOWS KITS\10\INCLUDE\10.0.19041.0\UM\UNKNWNBASE.H
C:\PROGRAM FILES (X86)\WINDOWS KITS\10\INCLUDE\10.0.19041.0\UM\OBJIDLBASE.H
C:\PROGRAM FILES (X86)\WINDOWS KITS\10\INCLUDE\10.0.19041.0\UM\CGUID.H
C:\PROGRAM FILES (X86)\WINDOWS KITS\10\INCLUDE\10.0.19041.0\UM\COML2API.H
C:\PROGRAM FILES (X86)\WINDOWS KITS\10\INCLUDE\10.0.19041.0\UM\OBJIDL.H
C:\PROGRAM FILES (X86)\WINDOWS KITS\10\INCLUDE\10.0.19041.0\UM\UNKNWN.H
C:\PROGRAM FILES (X86)\WINDOWS KITS\10\INCLUDE\10.0.19041.0\UM\PROPIDLBASE.H
C:\PROGRAM FILES (X86)\WINDOWS KITS\10\INCLUDE\10.0.19041.0\UM\OAIDL.H
C:\PROGRAM FILES (X86)\WINDOWS KITS\10\INCLUDE\10.0.19041.0\UM\URLMON.H
C:\PROGRAM FILES (X86)\WINDOWS KITS\10\INCLUDE\10.0.19041.0\UM\OLEIDL.H
C:\PROGRAM FILES (X86)\WINDOWS KITS\10\INCLUDE\10.0.19041.0\UM\SERVPROV.H
C:\PROGRAM FILES (X86)\WINDOWS KITS\10\INCLUDE\10.0.19041.0\UM\MSXML.H
C:\PROGRAM FILES (X86)\WINDOWS KITS\10\INCLUDE\10.0.19041.0\UM\PROPIDL.H
C:\PROGRAM FILES (X86)\WINDOWS KITS\10\INCLUDE\10.0.19041.0\UM\OLEAUTO.H
C:\PROGRAM FILES (X86)\WINDOWS KITS\10\INCLUDE\10.0.19041.0\UM\COMMDLG.H
C:\PROGRAM FILES (X86)\WINDOWS KITS\10\INCLUDE\10.0.19041.0\SHARED\STRALIGN.H
C:\PROGRAM FILES (X86)\WINDOWS KITS\10\INCLUDE\10.0.19041.0\UM\WINSVC.H
C:\PROGRAM FILES (X86)\WINDOWS KITS\10\INCLUDE\10.0.19041.0\UM\MCX.H
C:\PROGRAM FILES (X86)\WINDOWS KITS\10\INCLUDE\10.0.19041.0\UM\IMM.H
C:\PROGRAM FILES (X86)\WINDOWS KITS\10\INCLUDE\10.0.19041.0\UM\IME_CMODES.H
C:\USERS\AMD\DESKTOP\WXWIDGETS\INCLUDE\WX\MSW\APP.H
C:\USERS\AMD\DESKTOP\WXWIDGETS\INCLUDE\WX\ICON.H
C:\USERS\AMD\DESKTOP\WXWIDGETS\INCLUDE\WX\ICONLOC.H
C:\USERS\AMD\DESKTOP\WXWIDGETS\INCLUDE\WX\MSW\ICON.H
C:\USERS\AMD\DESKTOP\WXWIDGETS\INCLUDE\WX\STREAM.H
C:\USERS\AMD\DESKTOP\WXWIDGETS\INCLUDE\WX\STOPWATCH.H
C:\USERS\AMD\DESKTOP\WXWIDGETS\INCLUDE\WX\TIMER.H
C:\USERS\AMD\DESKTOP\WXWIDGETS\INCLUDE\WX\MODULE.H
C:\USERS\AMD\DESKTOP\WXWIDGETS\INCLUDE\WX\WXCRTVARARG.H
C:\USERS\AMD\DESKTOP\WXWIDGETS\INCLUDE\WX\WINDOW.H
C:\USERS\AMD\DESKTOP\WXWIDGETS\INCLUDE\WX\FONT.H
C:\USERS\AMD\DESKTOP\WXWIDGETS\INCLUDE\WX\MSW\FONT.H
C:\USERS\AMD\DESKTOP\WXWIDGETS\INCLUDE\WX\COLOUR.H
C:\USERS\AMD\DESKTOP\WXWIDGETS\INCLUDE\WX\MSW\COLOUR.H
C:\USERS\AMD\DESKTOP\WXWIDGETS\INCLUDE\WX\REGION.H
C:\USERS\AMD\DESKTOP\WXWIDGETS\INCLUDE\WX\MSW\REGION.H
C:\USERS\AMD\DESKTOP\WXWIDGETS\INCLUDE\WX\VALIDATE.H
C:\USERS\AMD\DESKTOP\WXWIDGETS\INCLUDE\WX\WINDOWID.H
C:\USERS\AMD\DESKTOP\WXWIDGETS\INCLUDE\WX\PALETTE.H
C:\USERS\AMD\DESKTOP\WXWIDGETS\INCLUDE\WX\MSW\PALETTE.H
C:\USERS\AMD\DESKTOP\WXWIDGETS\INCLUDE\WX\ACCEL.H
C:\USERS\AMD\DESKTOP\WXWIDGETS\INCLUDE\WX\MSW\ACCEL.H
C:\USERS\AMD\DESKTOP\WXWIDGETS\INCLUDE\WX\ACCESS.H
C:\USERS\AMD\DESKTOP\WXWIDGETS\INCLUDE\WX\MSW\OLE\ACCESS.H
C:\USERS\AMD\DESKTOP\WXWIDGETS\INCLUDE\WX\MSW\WINDOW.H
C:\USERS\AMD\DESKTOP\WXWIDGETS\INCLUDE\WX\SETTINGS.H
C:\USERS\AMD\DESKTOP\WXWIDGETS\INCLUDE\WX\CONTAINR.H
C:\USERS\AMD\DESKTOP\WXWIDGETS\INCLUDE\WX\PANEL.H
C:\USERS\AMD\DESKTOP\WXWIDGETS\INCLUDE\WX\MSW\PANEL.H
C:\USERS\AMD\DESKTOP\WXWIDGETS\INCLUDE\WX\TOPLEVEL.H
C:\USERS\AMD\DESKTOP\WXWIDGETS\INCLUDE\WX\NONOWNEDWND.H
C:\USERS\AMD\DESKTOP\WXWIDGETS\INCLUDE\WX\MSW\NONOWNEDWND.H
C:\USERS\AMD\DESKTOP\WXWIDGETS\INCLUDE\WX\ICONBNDL.H
C:\USERS\AMD\DESKTOP\WXWIDGETS\INCLUDE\WX\WEAKREF.H
C:\USERS\AMD\DESKTOP\WXWIDGETS\INCLUDE\WX\META\INT2TYPE.H
C:\USERS\AMD\DESKTOP\WXWIDGETS\INCLUDE\WX\MSW\TOPLEVEL.H
C:\USERS\AMD\DESKTOP\WXWIDGETS\INCLUDE\WX\FRAME.H
C:\USERS\AMD\DESKTOP\WXWIDGETS\INCLUDE\WX\STATUSBR.H
C:\USERS\AMD\DESKTOP\WXWIDGETS\INCLUDE\WX\CONTROL.H
C:\USERS\AMD\DESKTOP\WXWIDGETS\INCLUDE\WX\MSW\CONTROL.H
C:\USERS\AMD\DESKTOP\WXWIDGETS\INCLUDE\WX\MSW\STATUSBAR.H
C:\USERS\AMD\DESKTOP\WXWIDGETS\INCLUDE\WX\TOOLTIP.H
C:\USERS\AMD\DESKTOP\WXWIDGETS\INCLUDE\WX\MSW\TOOLTIP.H
C:\USERS\AMD\DESKTOP\WXWIDGETS\INCLUDE\WX\MSW\FRAME.H
C:\USERS\AMD\DESKTOP\WXWIDGETS\INCLUDE\WX\BITMAP.H
C:\USERS\AMD\DESKTOP\WXWIDGETS\INCLUDE\WX\IMAGE.H
C:\USERS\AMD\DESKTOP\WXWIDGETS\INCLUDE\WX\IMAGBMP.H
C:\USERS\AMD\DESKTOP\WXWIDGETS\INCLUDE\WX\IMAGPNG.H
C:\USERS\AMD\DESKTOP\WXWIDGETS\INCLUDE\WX\IMAGGIF.H
C:\USERS\AMD\DESKTOP\WXWIDGETS\INCLUDE\WX\IMAGPCX.H
C:\USERS\AMD\DESKTOP\WXWIDGETS\INCLUDE\WX\IMAGJPEG.H
C:\USERS\AMD\DESKTOP\WXWIDGETS\INCLUDE\WX\IMAGTGA.H
C:\USERS\AMD\DESKTOP\WXWIDGETS\INCLUDE\WX\IMAGTIFF.H
C:\USERS\AMD\DESKTOP\WXWIDGETS\INCLUDE\WX\IMAGPNM.H
C:\USERS\AMD\DESKTOP\WXWIDGETS\INCLUDE\WX\IMAGXPM.H
C:\USERS\AMD\DESKTOP\WXWIDGETS\INCLUDE\WX\IMAGIFF.H
C:\USERS\AMD\DESKTOP\WXWIDGETS\INCLUDE\WX\MSW\BITMAP.H
C:\USERS\AMD\DESKTOP\WXWIDGETS\INCLUDE\WX\DC.H
C:\USERS\AMD\DESKTOP\WXWIDGETS\INCLUDE\WX\BRUSH.H
C:\USERS\AMD\DESKTOP\WXWIDGETS\INCLUDE\WX\MSW\BRUSH.H
C:\USERS\AMD\DESKTOP\WXWIDGETS\INCLUDE\WX\PEN.H
C:\USERS\AMD\DESKTOP\WXWIDGETS\INCLUDE\WX\PENINFOBASE.H
C:\USERS\AMD\DESKTOP\WXWIDGETS\INCLUDE\WX\MSW\PEN.H
C:\USERS\AMD\DESKTOP\WXWIDGETS\INCLUDE\WX\AFFINEMATRIX2D.H
C:\USERS\AMD\DESKTOP\WXWIDGETS\INCLUDE\WX\AFFINEMATRIX2DBASE.H
C:\USERS\AMD\DESKTOP\WXWIDGETS\INCLUDE\WX\GEOMETRY.H
C:\USERS\AMD\DESKTOP\WXWIDGETS\INCLUDE\WX\DCCLIENT.H
C:\USERS\AMD\DESKTOP\WXWIDGETS\INCLUDE\WX\DCMEMORY.H
C:\USERS\AMD\DESKTOP\WXWIDGETS\INCLUDE\WX\DCPRINT.H
C:\USERS\AMD\DESKTOP\WXWIDGETS\INCLUDE\WX\DCSCREEN.H
C:\USERS\AMD\DESKTOP\WXWIDGETS\INCLUDE\WX\BUTTON.H
C:\USERS\AMD\DESKTOP\WXWIDGETS\INCLUDE\WX\ANYBUTTON.H
C:\USERS\AMD\DESKTOP\WXWIDGETS\INCLUDE\WX\MSW\ANYBUTTON.H
C:\USERS\AMD\DESKTOP\WXWIDGETS\INCLUDE\WX\MSW\BUTTON.H
C:\USERS\AMD\DESKTOP\WXWIDGETS\INCLUDE\WX\MENUITEM.H
C:\USERS\AMD\DESKTOP\WXWIDGETS\INCLUDE\WX\MSW\MENUITEM.H
C:\USERS\AMD\DESKTOP\WXWIDGETS\INCLUDE\WX\OWNERDRW.H
C:\USERS\AMD\DESKTOP\WXWIDGETS\INCLUDE\WX\MSW\OWNERDRW.H
C:\USERS\AMD\DESKTOP\WXWIDGETS\INCLUDE\WX\MENU.H
C:\USERS\AMD\DESKTOP\WXWIDGETS\INCLUDE\WX\MSW\MENU.H
C:\USERS\AMD\DESKTOP\WXWIDGETS\INCLUDE\WX\DIALOG.H
C:\USERS\AMD\DESKTOP\WXWIDGETS\INCLUDE\WX\SHAREDPTR.H
C:\USERS\AMD\DESKTOP\WXWIDGETS\INCLUDE\WX\ATOMIC.H
C:\USERS\AMD\DESKTOP\WXWIDGETS\INCLUDE\WX\MSW\DIALOG.H
C:\USERS\AMD\DESKTOP\WXWIDGETS\INCLUDE\WX\MSGDLG.H
C:\USERS\AMD\DESKTOP\WXWIDGETS\INCLUDE\WX\STOCKITEM.H
C:\USERS\AMD\DESKTOP\WXWIDGETS\INCLUDE\WX\GENERIC\MSGDLGG.H
C:\USERS\AMD\DESKTOP\WXWIDGETS\INCLUDE\WX\MSW\MSGDLG.H
C:\USERS\AMD\DESKTOP\WXWIDGETS\INCLUDE\WX\DATAOBJ.H
C:\USERS\AMD\DESKTOP\WXWIDGETS\INCLUDE\WX\MSW\OLE\DATAFORM.H
C:\USERS\AMD\DESKTOP\WXWIDGETS\INCLUDE\WX\MSW\OLE\DATAOBJ.H
C:\USERS\AMD\DESKTOP\WXWIDGETS\INCLUDE\WX\MSW\OLE\DATAOBJ2.H
C:\USERS\AMD\DESKTOP\WXWIDGETS\INCLUDE\WX\CTRLSUB.H
C:\USERS\AMD\DESKTOP\WXWIDGETS\INCLUDE\WX\MSW\CTRLSUB.H
C:\USERS\AMD\DESKTOP\WXWIDGETS\INCLUDE\WX\BMPBUTTN.H
C:\USERS\AMD\DESKTOP\WXWIDGETS\INCLUDE\WX\MSW\BMPBUTTN.H
C:\USERS\AMD\DESKTOP\WXWIDGETS\INCLUDE\WX\CHECKBOX.H
C:\USERS\AMD\DESKTOP\WXWIDGETS\INCLUDE\WX\MSW\CHECKBOX.H
C:\USERS\AMD\DESKTOP\WXWIDGETS\INCLUDE\WX\MSW\OWNERDRAWNBUTTON.H
C:\USERS\AMD\DESKTOP\WXWIDGETS\INCLUDE\WX\CHECKLST.H
C:\USERS\AMD\DESKTOP\WXWIDGETS\INCLUDE\WX\LISTBOX.H
C:\USERS\AMD\DESKTOP\WXWIDGETS\INCLUDE\WX\MSW\LISTBOX.H
C:\USERS\AMD\DESKTOP\WXWIDGETS\INCLUDE\WX\MSW\CHECKLST.H
C:\USERS\AMD\DESKTOP\WXWIDGETS\INCLUDE\WX\CHOICE.H
C:\USERS\AMD\DESKTOP\WXWIDGETS\INCLUDE\WX\MSW\CHOICE.H
C:\USERS\AMD\DESKTOP\WXWIDGETS\INCLUDE\WX\SCROLBAR.H
C:\USERS\AMD\DESKTOP\WXWIDGETS\INCLUDE\WX\MSW\SCROLBAR.H
C:\USERS\AMD\DESKTOP\WXWIDGETS\INCLUDE\WX\STATTEXT.H
C:\USERS\AMD\DESKTOP\WXWIDGETS\INCLUDE\WX\MSW\STATTEXT.H
C:\USERS\AMD\DESKTOP\WXWIDGETS\INCLUDE\WX\STATBMP.H
C:\USERS\AMD\DESKTOP\WXWIDGETS\INCLUDE\WX\MSW\STATBMP.H
C:\USERS\AMD\DESKTOP\WXWIDGETS\INCLUDE\WX\STATBOX.H
C:\USERS\AMD\DESKTOP\WXWIDGETS\INCLUDE\WX\MSW\STATBOX.H
C:\USERS\AMD\DESKTOP\WXWIDGETS\INCLUDE\WX\COMPOSITEWIN.H
C:\USERS\AMD\DESKTOP\WXWIDGETS\INCLUDE\WX\RADIOBOX.H
C:\USERS\AMD\DESKTOP\WXWIDGETS\INCLUDE\WX\MSW\RADIOBOX.H
C:\USERS\AMD\DESKTOP\WXWIDGETS\INCLUDE\WX\RADIOBUT.H
C:\USERS\AMD\DESKTOP\WXWIDGETS\INCLUDE\WX\MSW\RADIOBUT.H
C:\USERS\AMD\DESKTOP\WXWIDGETS\INCLUDE\WX\TEXTCTRL.H
C:\USERS\AMD\DESKTOP\WXWIDGETS\INCLUDE\WX\TEXTENTRY.H
C:\USERS\AMD\DESKTOP\WXWIDGETS\INCLUDE\WX\MSW\TEXTENTRY.H
C:\USERS\AMD\DESKTOP\WXWIDGETS\INCLUDE\WX\IOSWRAP.H
C:\PROGRAM FILES (X86)\MICROSOFT VISUAL STUDIO\2019\COMMUNITY\VC\TOOLS\MSVC\14.28.29910\INCLUDE\IOSTREAM
C:\PROGRAM FILES (X86)\MICROSOFT VISUAL STUDIO\2019\COMMUNITY\VC\TOOLS\MSVC\14.28.29910\INCLUDE\ISTREAM
C:\PROGRAM FILES (X86)\MICROSOFT VISUAL STUDIO\2019\COMMUNITY\VC\TOOLS\MSVC\14.28.29910\INCLUDE\OSTREAM
C:\PROGRAM FILES (X86)\MICROSOFT VISUAL STUDIO\2019\COMMUNITY\VC\TOOLS\MSVC\14.28.29910\INCLUDE\IOS
C:\PROGRAM FILES (X86)\MICROSOFT VISUAL STUDIO\2019\COMMUNITY\VC\TOOLS\MSVC\14.28.29910\INCLUDE\XLOCNUM
C:\PROGRAM FILES (X86)\MICROSOFT VISUAL STUDIO\2019\COMMUNITY\VC\TOOLS\MSVC\14.28.29910\INCLUDE\STREAMBUF
C:\PROGRAM FILES (X86)\MICROSOFT VISUAL STUDIO\2019\COMMUNITY\VC\TOOLS\MSVC\14.28.29910\INCLUDE\XIOSBASE
C:\PROGRAM FILES (X86)\WINDOWS KITS\10\INCLUDE\10.0.19041.0\UCRT\SHARE.H
C:\PROGRAM FILES (X86)\MICROSOFT VISUAL STUDIO\2019\COMMUNITY\VC\TOOLS\MSVC\14.28.29910\INCLUDE\SYSTEM_ERROR
C:\PROGRAM FILES (X86)\MICROSOFT VISUAL STUDIO\2019\COMMUNITY\VC\TOOLS\MSVC\14.28.29910\INCLUDE\__MSVC_SYSTEM_ERROR_ABI.HPP
C:\PROGRAM FILES (X86)\MICROSOFT VISUAL STUDIO\2019\COMMUNITY\VC\TOOLS\MSVC\14.28.29910\INCLUDE\CERRNO
C:\PROGRAM FILES (X86)\MICROSOFT VISUAL STUDIO\2019\COMMUNITY\VC\TOOLS\MSVC\14.28.29910\INCLUDE\STDEXCEPT
C:\PROGRAM FILES (X86)\MICROSOFT VISUAL STUDIO\2019\COMMUNITY\VC\TOOLS\MSVC\14.28.29910\INCLUDE\XCALL_ONCE.H
C:\PROGRAM FILES (X86)\MICROSOFT VISUAL STUDIO\2019\COMMUNITY\VC\TOOLS\MSVC\14.28.29910\INCLUDE\XERRC.H
C:\PROGRAM FILES (X86)\MICROSOFT VISUAL STUDIO\2019\COMMUNITY\VC\TOOLS\MSVC\14.28.29910\INCLUDE\ATOMIC
C:\PROGRAM FILES (X86)\MICROSOFT VISUAL STUDIO\2019\COMMUNITY\VC\TOOLS\MSVC\14.28.29910\INCLUDE\XTHREADS.H
C:\PROGRAM FILES (X86)\MICROSOFT VISUAL STUDIO\2019\COMMUNITY\VC\TOOLS\MSVC\14.28.29910\INCLUDE\XTIMEC.H
C:\PROGRAM FILES (X86)\MICROSOFT VISUAL STUDIO\2019\COMMUNITY\VC\TOOLS\MSVC\14.28.29910\INCLUDE\CTIME
C:\PROGRAM FILES (X86)\MICROSOFT VISUAL STUDIO\2019\COMMUNITY\VC\TOOLS\MSVC\14.28.29910\INCLUDE\XLOCALE
C:\PROGRAM FILES (X86)\MICROSOFT VISUAL STUDIO\2019\COMMUNITY\VC\TOOLS\MSVC\14.28.29910\INCLUDE\MEMORY
C:\PROGRAM FILES (X86)\MICROSOFT VISUAL STUDIO\2019\COMMUNITY\VC\TOOLS\MSVC\14.28.29910\INCLUDE\XFACET
C:\PROGRAM FILES (X86)\MICROSOFT VISUAL STUDIO\2019\COMMUNITY\VC\TOOLS\MSVC\14.28.29910\INCLUDE\XLOCINFO
C:\PROGRAM FILES (X86)\MICROSOFT VISUAL STUDIO\2019\COMMUNITY\VC\TOOLS\MSVC\14.28.29910\INCLUDE\XLOCINFO.H
C:\PROGRAM FILES (X86)\MICROSOFT VISUAL STUDIO\2019\COMMUNITY\VC\TOOLS\MSVC\14.28.29910\INCLUDE\CLOCALE
C:\PROGRAM FILES (X86)\WINDOWS KITS\10\INCLUDE\10.0.19041.0\UCRT\LOCALE.H
C:\USERS\AMD\DESKTOP\WXWIDGETS\INCLUDE\WX\MSW\TEXTCTRL.H
C:\USERS\AMD\DESKTOP\WXWIDGETS\INCLUDE\WX\SLIDER.H
C:\USERS\AMD\DESKTOP\WXWIDGETS\INCLUDE\WX\MSW\SLIDER.H
C:\USERS\AMD\DESKTOP\WXWIDGETS\INCLUDE\WX\GAUGE.H
C:\USERS\AMD\DESKTOP\WXWIDGETS\INCLUDE\WX\MSW\GAUGE.H
C:\USERS\AMD\DESKTOP\WXWIDGETS\INCLUDE\WX\SCROLWIN.H
C:\USERS\AMD\DESKTOP\WXWIDGETS\INCLUDE\WX\GENERIC\SCROLWIN.H
C:\USERS\AMD\DESKTOP\WXWIDGETS\INCLUDE\WX\RECGUARD.H
C:\USERS\AMD\DESKTOP\WXWIDGETS\INCLUDE\WX\DIRDLG.H
C:\USERS\AMD\DESKTOP\WXWIDGETS\INCLUDE\WX\MSW\DIRDLG.H
C:\USERS\AMD\DESKTOP\WXWIDGETS\INCLUDE\WX\TOOLBAR.H
C:\USERS\AMD\DESKTOP\WXWIDGETS\INCLUDE\WX\TBARBASE.H
C:\USERS\AMD\DESKTOP\WXWIDGETS\INCLUDE\WX\MSW\TOOLBAR.H
C:\USERS\AMD\DESKTOP\WXWIDGETS\INCLUDE\WX\IMAGLIST.H
C:\USERS\AMD\DESKTOP\WXWIDGETS\INCLUDE\WX\MSW\IMAGLIST.H
C:\USERS\AMD\DESKTOP\WXWIDGETS\INCLUDE\WX\COMBOBOX.H
C:\USERS\AMD\DESKTOP\WXWIDGETS\INCLUDE\WX\MSW\COMBOBOX.H
C:\USERS\AMD\DESKTOP\WXWIDGETS\INCLUDE\WX\LAYOUT.H
C:\USERS\AMD\DESKTOP\WXWIDGETS\INCLUDE\WX\SIZER.H
C:\USERS\AMD\DESKTOP\WXWIDGETS\INCLUDE\WX\CHOICDLG.H
C:\USERS\AMD\DESKTOP\WXWIDGETS\INCLUDE\WX\GENERIC\CHOICDGG.H
C:\USERS\AMD\DESKTOP\WXWIDGETS\INCLUDE\WX\TEXTDLG.H
C:\USERS\AMD\DESKTOP\WXWIDGETS\INCLUDE\WX\GENERIC\TEXTDLGG.H
C:\USERS\AMD\DESKTOP\WXWIDGETS\INCLUDE\WX\VALTEXT.H
C:\USERS\AMD\DESKTOP\WXWIDGETS\INCLUDE\WX\FILEDLG.H
C:\USERS\AMD\DESKTOP\WXWIDGETS\INCLUDE\WX\MSW\FILEDLG.H
C:\USERS\AMD\DESKTOP\WXWIDGETS\INCLUDE\WX\MDI.H
C:\USERS\AMD\DESKTOP\WXWIDGETS\INCLUDE\WX\MSW\MDI.H
