^E:\_EGYETEM\6.FELEV\GYAK2\DEMOS\LINE AND FILL EXAMPLES\WXWIDGETS\EXAMPLE\EXAMPLE\DEBUG\MAIN.OBJ
E:\_EGYETEM\6.FELEV\GYAK2\DEMOS\LINE AND FILL EXAMPLES\WXWIDGETS\EXAMPLE\DEBUG\EXAMPLE.EXE
E:\_EGYETEM\6.FELEV\GYAK2\DEMOS\LINE AND FILL EXAMPLES\WXWIDGETS\EXAMPLE\DEBUG\EXAMPLE.ILK
E:\_EGYETEM\6.FELEV\GYAK2\DEMOS\LINE AND FILL EXAMPLES\WXWIDGETS\EXAMPLE\DEBUG\EXAMPLE.PDB
